^C:\USERS\GVOZDEV\DESKTOP\CPPPORTFILENOOOP\DEBUG\CPPPORTFILENOOOP.OBJ
C:\USERS\GVOZDEV\DESKTOP\CPPPORTFILENOOOP\DEBUG\CPPPORTFILENOOOP.EXE
C:\USERS\GVOZDEV\DESKTOP\CPPPORTFILENOOOP\DEBUG\CPPPORTFILENOOOP.ILK
C:\USERS\GVOZDEV\DESKTOP\CPPPORTFILENOOOP\DEBUG\CPPPORTFILENOOOP.PDB
